<svg width="12" height="12" viewBox="0 0 12 12" fill="none" xmlns="http://www.w3.org/2000/svg">
<path d="M9.84812 3.51562H2.15124C1.92038 3.51562 1.79148 3.75937 1.93445 3.92578L5.78288 8.38828C5.89304 8.51602 6.10515 8.51602 6.21648 8.38828L10.0649 3.92578C10.2079 3.75937 10.079 3.51562 9.84812 3.51562Z" fill="#111111"/>
</svg>
