<svg width="21" height="20" viewBox="0 0 21 20" fill="none" xmlns="http://www.w3.org/2000/svg">
<g id="dashicons:money-alt">
<path id="Vector" d="M10.85 9C10.45 8.9 10.05 8.7 9.75 8.4C9.45 8.3 9.35 8 9.35 7.8C9.35 7.6 9.45 7.3 9.65 7.2C9.95 7 10.25 6.8 10.55 6.9C11.15 6.9 11.65 7.2 11.95 7.6L12.85 6.4C12.55 6.1 12.25 5.9 11.95 5.7C11.65 5.5 11.25 5.4 10.85 5.4V4H9.65V5.4C9.15 5.5 8.65 5.8 8.25 6.2C7.85 6.7 7.55 7.3 7.65 7.9C7.65 8.5 7.85 9.1 8.25 9.5C8.75 10 9.45 10.3 10.05 10.6C10.35 10.7 10.75 10.9 11.05 11.1C11.25 11.3 11.35 11.6 11.35 11.9C11.35 12.2 11.25 12.5 11.05 12.8C10.75 13.1 10.35 13.2 10.05 13.2C9.65 13.2 9.15 13.1 8.85 12.8C8.55 12.6 8.25 12.3 8.05 12L7.05 13.1C7.35 13.5 7.65 13.8 8.05 14.1C8.55 14.4 9.15 14.7 9.75 14.7V16H10.85V14.5C11.45 14.4 11.95 14.1 12.35 13.7C12.85 13.2 13.15 12.4 13.15 11.7C13.15 11.1 12.95 10.4 12.45 10C11.95 9.5 11.45 9.2 10.85 9ZM10.25 2C5.85 2 2.25 5.6 2.25 10C2.25 14.4 5.85 18 10.25 18C14.65 18 18.25 14.4 18.25 10C18.25 5.6 14.65 2 10.25 2ZM10.25 16.9C6.45 16.9 3.35 13.8 3.35 10C3.35 6.2 6.45 3.1 10.25 3.1C14.05 3.1 17.15 6.2 17.15 10C17.15 13.8 14.05 16.9 10.25 16.9Z" fill="#848A95"/>
</g>
</svg>
